dump.vcd
$date
	Sat Jun 27 17:15:47 2026
$end
$version
	Icarus Verilog
$end
$timescale
	1ps
$end
$scope module tb_riscv_top $end
$var wire 1 ! tb_reg_wb_en $end
$var wire 32 " tb_reg_wb_data [31:0] $end
$var wire 5 # tb_reg_wb_addr [4:0] $end
$var wire 32 $ tb_pc [31:0] $end
$var wire 32 % tb_alu_result [31:0] $end
$var parameter 32 & CLK_HALF $end
$var parameter 208 ' HEX_FILE $end
$var parameter 32 ( MAX_CYCLES $end
$var reg 1 ) clk $end
$var reg 1 * rst $end
$var integer 32 + cycle [31:0] $end
$var integer 32 , errors [31:0] $end
$scope module DUT $end
$var wire 1 ) clk $end
$var wire 1 - flush $end
$var wire 1 . hz_flush_unused $end
$var wire 32 / memwb_alu_result [31:0] $end
$var wire 32 0 memwb_mem_data [31:0] $end
$var wire 2 1 memwb_mem_to_reg [1:0] $end
$var wire 1 * rst $end
$var wire 32 2 tb_alu_result [31:0] $end
$var wire 32 3 tb_pc [31:0] $end
$var wire 5 4 tb_reg_wb_addr [4:0] $end
$var wire 32 5 tb_reg_wb_data [31:0] $end
$var wire 1 ! tb_reg_wb_en $end
$var wire 5 6 wb_rd_addr [4:0] $end
$var wire 1 7 wb_reg_write $end
$var wire 32 8 wb_wdata [31:0] $end
$var wire 1 9 stall $end
$var wire 5 : rs2_addr_D [4:0] $end
$var wire 5 ; rs1_addr_D [4:0] $end
$var wire 32 < rf_rdata2_D [31:0] $end
$var wire 32 = rf_rdata1_D [31:0] $end
$var wire 1 > reg_write_D $end
$var wire 5 ? rd_addr_D [4:0] $end
$var wire 32 @ pcPlus4F [31:0] $end
$var wire 32 A pcNextF [31:0] $end
$var wire 32 B pcF [31:0] $end
$var wire 7 C opcode [6:0] $end
$var wire 1 D mem_write_D $end
$var wire 2 E mem_to_reg_D [1:0] $end
$var wire 1 F mem_read_D $end
$var wire 32 G mem_rdata_ext_M [31:0] $end
$var wire 32 H mem_rdata_M [31:0] $end
$var wire 1 I jump_D $end
$var wire 32 J instrF [31:0] $end
$var wire 32 K immD [31:0] $end
$var wire 32 L fwd_src_b_pre [31:0] $end
$var wire 32 M fwd_src_a [31:0] $end
$var wire 2 N fwd_b_sel [1:0] $end
$var wire 2 O fwd_a_sel [1:0] $end
$var wire 7 P funct7 [6:0] $end
$var wire 3 Q funct3 [2:0] $end
$var wire 32 R exmem_alu_result [31:0] $end
$var wire 32 S branch_target [31:0] $end
$var wire 1 T branch_taken $end
$var wire 1 U branch_D $end
$var wire 1 V auipc_D $end
$var wire 1 W alu_zero_E $end
$var wire 1 X alu_src_D $end
$var wire 32 Y alu_result_E [31:0] $end
$var wire 32 Z alu_operand_b [31:0] $end
$var wire 32 [ alu_operand_a [31:0] $end
$var wire 4 \ alu_op_D [3:0] $end
$var reg 32 ] exmem_alu_result_r [31:0] $end
$var reg 1 ^ exmem_branch $end
$var reg 3 _ exmem_funct3 [2:0] $end
$var reg 1 ` exmem_jump $end
$var reg 1 a exmem_mem_read $end
$var reg 2 b exmem_mem_to_reg [1:0] $end
$var reg 1 c exmem_mem_write $end
$var reg 32 d exmem_pc_plus4 [31:0] $end
$var reg 5 e exmem_rd_addr [4:0] $end
$var reg 1 f exmem_reg_write $end
$var reg 32 g exmem_rs2_data [31:0] $end
$var reg 1 h exmem_zero $end
$var reg 4 i idex_alu_op [3:0] $end
$var reg 1 j idex_alu_src $end
$var reg 1 k idex_auipc $end
$var reg 1 l idex_branch $end
$var reg 3 m idex_funct3 [2:0] $end
$var reg 32 n idex_imm [31:0] $end
$var reg 1 o idex_jump $end
$var reg 1 p idex_mem_read $end
$var reg 2 q idex_mem_to_reg [1:0] $end
$var reg 1 r idex_mem_write $end
$var reg 32 s idex_pc [31:0] $end
$var reg 32 t idex_pc_plus4 [31:0] $end
$var reg 5 u idex_rd_addr [4:0] $end
$var reg 1 v idex_reg_write $end
$var reg 5 w idex_rs1_addr [4:0] $end
$var reg 32 x idex_rs1_data [31:0] $end
$var reg 5 y idex_rs2_addr [4:0] $end
$var reg 32 z idex_rs2_data [31:0] $end
$var reg 32 { ifid_instr [31:0] $end
$var reg 32 | ifid_pc [31:0] $end
$var reg 32 } ifid_pc_plus4 [31:0] $end
$var reg 32 ~ memwb_alu_result_r [31:0] $end
$var reg 32 !" memwb_mem_data_r [31:0] $end
$var reg 2 "" memwb_mem_to_reg_r [1:0] $end
$var reg 32 #" memwb_pc_plus4_r [31:0] $end
$var reg 5 $" memwb_rd_addr_r [4:0] $end
$var reg 1 %" memwb_reg_write_r $end
$scope module ALU $end
$var wire 4 &" ALUControl [3:0] $end
$var wire 1 '" Overflow $end
$var wire 1 (" do_sub $end
$var wire 32 )" operand_a [31:0] $end
$var wire 32 *" operand_b [31:0] $end
$var wire 1 +" sum_overflow $end
$var wire 5 ," shamt [4:0] $end
$var wire 33 -" adder_result [32:0] $end
$var wire 33 ." adder_b [32:0] $end
$var wire 33 /" adder_a [32:0] $end
$var wire 1 W Zero $end
$var wire 1 0" Negative $end
$var wire 1 1" Carry $end
$var reg 32 2" result [31:0] $end
$upscope $end
$scope module BRANCH_UNIT $end
$var wire 1 j alu_src $end
$var wire 1 l branch $end
$var wire 3 3" funct3 [2:0] $end
$var wire 32 4" imm [31:0] $end
$var wire 1 o jump $end
$var wire 32 5" pc [31:0] $end
$var wire 32 6" pc_plus4 [31:0] $end
$var wire 32 7" rs1_data [31:0] $end
$var wire 32 8" rs2_data [31:0] $end
$var wire 32 9" signed_rs1 [31:0] $end
$var wire 32 :" signed_rs2 [31:0] $end
$var reg 1 T branch_taken $end
$var reg 32 ;" branch_target [31:0] $end
$var reg 1 <" condition_met $end
$upscope $end
$scope module CTRL $end
$var wire 3 =" funct3 [2:0] $end
$var wire 7 >" funct7 [6:0] $end
$var wire 7 ?" opcode [6:0] $end
$var wire 1 > reg_write $end
$var wire 1 D mem_write $end
$var wire 2 @" mem_to_reg [1:0] $end
$var wire 1 F mem_read $end
$var wire 1 I jump $end
$var wire 3 A" imm_src_unused [2:0] $end
$var wire 1 U branch $end
$var wire 1 V auipc $end
$var wire 1 X alu_src $end
$var wire 4 B" alu_op [3:0] $end
$scope module ADEC $end
$var wire 3 C" funct3 [2:0] $end
$var wire 1 D" funct7b5 $end
$var wire 7 E" opcode [6:0] $end
$var parameter 7 F" OP_AUIPC $end
$var parameter 7 G" OP_BRANCH $end
$var parameter 7 H" OP_I_ARITH $end
$var parameter 7 I" OP_JAL $end
$var parameter 7 J" OP_JALR $end
$var parameter 7 K" OP_LOAD $end
$var parameter 7 L" OP_LUI $end
$var parameter 7 M" OP_R $end
$var parameter 7 N" OP_STORE $end
$var reg 4 O" ALUControl [3:0] $end
$upscope $end
$scope module MDEC $end
$var wire 7 P" opcode [6:0] $end
$var parameter 7 Q" OP_AUIPC $end
$var parameter 7 R" OP_BRANCH $end
$var parameter 7 S" OP_I_ARITH $end
$var parameter 7 T" OP_JAL $end
$var parameter 7 U" OP_JALR $end
$var parameter 7 V" OP_LOAD $end
$var parameter 7 W" OP_LUI $end
$var parameter 7 X" OP_R $end
$var parameter 7 Y" OP_STORE $end
$var parameter 7 Z" OP_SYSTEM $end
$var reg 1 X ALUSrc $end
$var reg 1 V AuiPC $end
$var reg 1 U Branch $end
$var reg 3 [" ImmSrc [2:0] $end
$var reg 1 I Jump $end
$var reg 1 F MemRead $end
$var reg 1 D MemWrite $end
$var reg 1 > RegWrite $end
$var reg 2 \" ResultSrc [1:0] $end
$upscope $end
$upscope $end
$scope module DMEM $end
$var wire 32 ]" addr [31:0] $end
$var wire 1 ) clk $end
$var wire 3 ^" funct3 [2:0] $end
$var wire 1 a mem_read $end
$var wire 1 c mem_write $end
$var wire 32 _" rdata [31:0] $end
$var wire 32 `" wdata [31:0] $end
$var wire 9 a" word_addr [8:0] $end
$var wire 2 b" byte_offset [1:0] $end
$var parameter 32 c" ADDR_BITS $end
$var parameter 32 d" DEPTH $end
$var reg 32 e" rd_pre [31:0] $end
$upscope $end
$scope module HAZARD $end
$var wire 5 f" exmem_rd_addr [4:0] $end
$var wire 1 f exmem_reg_write $end
$var wire 1 . flush $end
$var wire 1 p idex_mem_read $end
$var wire 5 g" idex_rd_addr [4:0] $end
$var wire 5 h" idex_rs1_addr [4:0] $end
$var wire 5 i" idex_rs2_addr [4:0] $end
$var wire 5 j" ifid_rs1_addr [4:0] $end
$var wire 5 k" ifid_rs2_addr [4:0] $end
$var wire 1 l" load_use $end
$var wire 5 m" memwb_rd_addr [4:0] $end
$var wire 1 %" memwb_reg_write $end
$var wire 1 9 stall $end
$var wire 2 n" fwd_b_sel [1:0] $end
$var wire 2 o" fwd_a_sel [1:0] $end
$upscope $end
$scope module IMEM $end
$var wire 32 p" instr [31:0] $end
$var wire 32 q" pc [31:0] $end
$var parameter 32 r" ADDR_BITS $end
$var parameter 32 s" DEPTH $end
$var parameter 208 t" HEX_FILE $end
$upscope $end
$scope module IMM_GEN $end
$var wire 32 u" instr [31:0] $end
$var wire 7 v" opcode [6:0] $end
$var parameter 7 w" OP_AUIPC $end
$var parameter 7 x" OP_BRANCH $end
$var parameter 7 y" OP_I_ARITH $end
$var parameter 7 z" OP_JAL $end
$var parameter 7 {" OP_JALR $end
$var parameter 7 |" OP_LOAD $end
$var parameter 7 }" OP_LUI $end
$var parameter 7 ~" OP_STORE $end
$var reg 32 !# imm [31:0] $end
$upscope $end
$scope module LEXT $end
$var wire 3 "# funct3 [2:0] $end
$var wire 32 ## mem_rdata [31:0] $end
$var reg 32 $# ext_data [31:0] $end
$upscope $end
$scope module PC_REG $end
$var wire 1 ) clk $end
$var wire 1 %# en $end
$var wire 32 &# pc_next [31:0] $end
$var wire 1 * rst $end
$var reg 32 '# pc [31:0] $end
$upscope $end
$scope module RF $end
$var wire 1 ) clk $end
$var wire 5 (# rd_addr [4:0] $end
$var wire 1 7 reg_write $end
$var wire 5 )# rs1_addr [4:0] $end
$var wire 5 *# rs2_addr [4:0] $end
$var wire 1 * rst $end
$var wire 32 +# wdata [31:0] $end
$var wire 32 ,# rdata2 [31:0] $end
$var wire 32 -# rdata1 [31:0] $end
$var integer 32 .# i [31:0] $end
$upscope $end
$upscope $end
$scope begin check $end
$var integer 32 /# exp [31:0] $end
$var integer 32 0# got [31:0] $end
$var integer 32 1# i [31:0] $end
$upscope $end
$upscope $end
$enddefinitions $end
$comment Show the parameter values. $end
$dumpall
b100011 ~"
b110111 }"
b11 |"
b1100111 {"
b1101111 z"
b10011 y"
b1100011 x"
b10111 w"
b111000001110010011011110110011101110010011000010110110101110011001011110110100001100101011110000010111101100110011010010110001001101111011011100110000101100011011000110110100100101110011010000110010101111000 t"
b100000000 s"
b1000 r"
b1000000000 d"
b1001 c"
b1110011 Z"
b100011 Y"
b110011 X"
b110111 W"
b11 V"
b1100111 U"
b1101111 T"
b10011 S"
b1100011 R"
b10111 Q"
b100011 N"
b110011 M"
b110111 L"
b11 K"
b1100111 J"
b1101111 I"
b10011 H"
b1100011 G"
b10111 F"
b111110100 (
b111000001110010011011110110011101110010011000010110110101110011001011110110100001100101011110000010111101100110011010010110001001101111011011100110000101100011011000110110100100101110011010000110010101111000 '
b101 &
$end
#0
$dumpvars
bx 1#
bx 0#
bx /#
bx .#
bx -#
bx ,#
bx +#
bx *#
bx )#
bx (#
bx '#
bx &#
x%#
bx $#
bx ##
bx "#
bx !#
bx v"
bx u"
bx q"
bx p"
bx o"
bx n"
bx m"
xl"
bx k"
bx j"
bx i"
bx h"
bx g"
bx f"
bx e"
bx b"
bx a"
bx `"
bx _"
bx ^"
bx ]"
bx \"
bx ["
bx P"
bx O"
bx E"
xD"
bx C"
bx B"
bx A"
bx @"
bx ?"
bx >"
bx ="
x<"
bx ;"
bx :"
bx 9"
bx 8"
bx 7"
bx 6"
bx 5"
bx 4"
bx 3"
bx 2"
x1"
x0"
b0xxxxxxxxxxxxxxxxxxxxxxxxxxxxxxxx /"
b0xxxxxxxxxxxxxxxxxxxxxxxxxxxxxxxx ."
bx -"
bx ,"
x+"
bx *"
bx )"
x("
x'"
bx &"
x%"
bx $"
bx #"
bx ""
bx !"
bx ~
bx }
bx |
bx {
bx z
bx y
bx x
bx w
xv
bx u
bx t
bx s
xr
bx q
xp
xo
bx n
bx m
xl
xk
xj
bx i
xh
bx g
xf
bx e
bx d
xc
bx b
xa
x`
bx _
x^
bx ]
bx \
bx [
bx Z
bx Y
xX
xW
xV
xU
xT
bx S
bx R
bx Q
bx P
bx O
bx N
bx M
bx L
bx K
bx J
xI
bx H
bx G
xF
bx E
xD
bx C
bx B
bx A
bx @
bx ?
x>
bx =
bx <
bx ;
bx :
x9
bx 8
x7
bx 6
bx 5
bx 4
bx 3
bx 2
bx 1
bx 0
bx /
0.
x-
b0 ,
b0 +
1*
0)
bx %
bx $
bx #
bx "
x!
$end
#5000
0'"
0+"
01"
b0 ,"
b0 -"
b0 ."
b0 Z
b0 *"
b0 /"
b0 [
b0 )"
1<"
0V
b0 A"
b0 ["
b0 E
b0 @"
b0 \"
0I
0U
0D
0F
1X
1>
b0 \
b0 B"
b0 O"
0D"
b0 =
b0 -#
b0 <
b0 ,#
00"
0("
1%#
b0 N
b0 n"
b0 O
b0 o"
b0 :"
b0 L
b0 8"
b0 9"
b0 M
b0 7"
b101000000000010100010011 J
b101000000000010100010011 p"
b100 A
b100 &#
b10011 C
b10011 ?"
b10011 E"
b10011 P"
b0 Q
b0 ="
b0 C"
b0 P
b0 >"
b0 ;
b0 j"
b0 )#
b0 :
b0 k"
b0 *#
b0 ?
b0 K
b0 !#
b10011 v"
0-
0T
1W
b0 %
b0 2
b0 Y
b0 2"
09
0l"
b0 S
b0 ;"
b0xxxxxxxx H
b0xxxxxxxx _"
b0xxxxxxxx ##
b0xxxxxxxx e"
b0 a"
b0 b"
b0 "
b0 5
b0 8
b0 +#
b100 @
b0 $
b0 3
b0 B
b0 q"
b0 '#
b10011 {
b10011 u"
b0 }
b0 |
0k
b0 m
b0 3"
0o
0l
b0 q
0r
0p
0v
0j
b1111 i
b1111 &"
b0 u
b0 g"
b0 y
b0 i"
b0 w
b0 h"
b0 n
b0 4"
b0 z
b0 x
b0 t
b0 6"
b0 s
b0 5"
b0 _
b0 ^"
b0 "#
0`
0^
b0 b
0c
0a
0f
0h
b0 e
b0 f"
b0 g
b0 `"
b0 R
b0 ]
b0 ]"
b0 d
b0 1
b0 ""
0!
07
0%"
b0 #
b0 4
b0 6
b0 (#
b0 $"
b0 m"
b0 #"
b0 0
b0 !"
b0 /
b0 ~
b100000 .#
1)
#10000
0)
#15000
b100000 .#
1)
#20000
0*
0)
#25000
b10110010011 J
b10110010011 p"
b1000 A
b1000 &#
b1010 :
b1010 k"
b1010 *#
b1010 ?
b1010 K
b1010 !#
b1000 @
b100 $
b100 3
b100 B
b100 q"
b100 '#
b101000000000010100010011 {
b101000000000010100010011 u"
b100 }
1v
1j
b0 i
b0 &"
1h
bx 0
bx !"
b1 +
1)
#30000
0)
#35000
0W
b1010 %
b1010 2
b1010 Y
b1010 2"
b1010 -"
b1010 ."
b1010 ,"
b1010 Z
b1010 *"
b1010 S
b1010 ;"
b0 :
b0 k"
b0 *#
b1011 ?
b0 K
b0 !#
b100000000011000010011 J
b100000000011000010011 p"
b1100 A
b1100 &#
1f
b1010 u
b1010 g"
b1010 y
b1010 i"
b1010 n
b1010 4"
b100 t
b100 6"
b10110010011 {
b10110010011 u"
b1000 }
b100 |
b1100 @
b1000 $
b1000 3
b1000 B
b1000 q"
b1000 '#
b10 +
1)
#40000
0)
#45000
1W
b0 %
b0 2
b0 Y
b0 2"
b0 -"
b0 ."
b0 ,"
b0xxxxxxxx H
b0xxxxxxxx _"
b0xxxxxxxx ##
b0xxxxxxxx e"
b10000000000000000011100010011 J
b10000000000000000011100010011 p"
b10000 A
b10000 &#
b1 :
b1 k"
b1 *#
b1100 ?
b1 K
b1 !#
b0 Z
b0 *"
b100 S
b100 ;"
b10 a"
b10 b"
b10000 @
b1100 $
b1100 3
b1100 B
b1100 q"
b1100 '#
b100000000011000010011 {
b100000000011000010011 u"
b1100 }
b1000 |
b1011 u
b1011 g"
b0 y
b0 i"
b0 n
b0 4"
b1000 t
b1000 6"
b100 s
b100 5"
0h
b1010 e
b1010 f"
b1010 R
b1010 ]
b1010 ]"
b100 d
1!
17
1%"
b11 +
1)
#50000
0)
#55000
b0xxxxxxxx H
b0xxxxxxxx _"
b0xxxxxxxx ##
b0xxxxxxxx e"
0W
b1 %
b1 2
b1 Y
b1 2"
b1 -"
b1 ."
b1 ,"
b1010 "
b1010 5
b1010 8
b1010 +#
b0 a"
b0 b"
b1 Z
b1 *"
b1001 S
b1001 ;"
b1000 P
b1000 >"
b0 :
b0 k"
b0 *#
b1110 ?
b100000000 K
b100000000 !#
b101101110010000000100011 J
b101101110010000000100011 p"
b10100 A
b10100 &#
b1010 #
b1010 4
b1010 6
b1010 (#
b1010 $"
b1010 m"
b100 #"
b1010 /
b1010 ~
1h
b1011 e
b1011 f"
b0 R
b0 ]
b0 ]"
b1000 d
b1100 u
b1100 g"
b1 y
b1 i"
b1 n
b1 4"
b1100 t
b1100 6"
b1000 s
b1000 5"
b10000000000000000011100010011 {
b10000000000000000011100010011 u"
b10000 }
b1100 |
b10100 @
b10000 $
b10000 3
b10000 B
b10000 q"
b10000 '#
b100 +
1)
#60000
0)
#65000
b1 A"
b1 ["
1D
1X
0>
b0 \
b0 B"
b0 O"
b100000000 %
b100000000 2
b100000000 Y
b100000000 2"
b100000000 -"
b100000000 ."
b0 ,"
b0xxxxxxxx H
b0xxxxxxxx _"
b0xxxxxxxx ##
b0xxxxxxxx e"
b110001110010001000100011 J
b110001110010001000100011 p"
b11000 A
b11000 &#
b100011 C
b100011 ?"
b100011 E"
b100011 P"
b10 Q
b10 ="
b10 C"
b0 P
b0 >"
b1110 ;
b1110 j"
b1110 )#
b1011 :
b1011 k"
b1011 *#
b0 ?
b0 K
b0 !#
b100011 v"
b100000000 Z
b100000000 *"
b100001100 S
b100001100 ;"
b1 b"
b0 "
b0 5
b0 8
b0 +#
b11000 @
b10100 $
b10100 3
b10100 B
b10100 q"
b10100 '#
b101101110010000000100011 {
b101101110010000000100011 u"
b10100 }
b10000 |
b1110 u
b1110 g"
b0 y
b0 i"
b100000000 n
b100000000 4"
b10000 t
b10000 6"
b1100 s
b1100 5"
0h
b1100 e
b1100 f"
b1 R
b1 ]
b1 ]"
b1100 d
b1011 #
b1011 4
b1011 6
b1011 (#
b1011 $"
b1011 m"
b1000 #"
b0 /
b0 ~
b101 +
1)
#70000
0)
#75000
b100000000 /"
b100000000 [
b100000000 )"
b1 <
b1 ,#
b100000000 9"
b100000000 M
b100000000 7"
b1 O
b1 o"
b0xxxxxxxx H
b0xxxxxxxx _"
b0xxxxxxxx ##
b0xxxxxxxx e"
0W
b100000000 %
b100000000 2
b100000000 Y
b100000000 2"
b100000000 -"
b0 ."
b1 "
b1 5
b1 8
b1 +#
b1000000 a"
b0 b"
0<"
b0 Z
b0 *"
b10000 S
b10000 ;"
b1100 :
b1100 k"
b1100 *#
b100 ?
b100 K
b100 !#
b100001110000011110010011 J
b100001110000011110010011 p"
b11100 A
b11100 &#
b1100 #
b1100 4
b1100 6
b1100 (#
b1100 $"
b1100 m"
b1100 #"
b1 /
b1 ~
b1110 e
b1110 f"
b100000000 R
b100000000 ]
b100000000 ]"
b10000 d
b10 m
b10 3"
1r
0v
b0 u
b0 g"
b1011 y
b1011 i"
b1110 w
b1110 h"
b0 n
b0 4"
b10100 t
b10100 6"
b10000 s
b10000 5"
b110001110010001000100011 {
b110001110010001000100011 u"
b11000 }
b10100 |
b11100 @
b11000 $
b11000 3
b11000 B
b11000 q"
b11000 '#
b110 +
1)
#80000
0)
#85000
b100000000 /"
b100000000 [
b100000000 )"
b100000000 9"
b100000000 M
b100000000 7"
b100000000 =
b100000000 -#
b0 <
b0 ,#
1>
b0 A"
b0 ["
0D
1X
b0 \
b0 B"
b0 O"
b100000100 %
b100000100 2
b100000100 Y
b100000100 2"
b100000100 -"
b100 ."
b100 ,"
b1 :"
b1 L
b1 8"
b10 O
b10 o"
b11111111111001010000010100010011 J
b11111111111001010000010100010011 p"
b100000 A
b100000 &#
b10011 C
b10011 ?"
b10011 E"
b10011 P"
b0 Q
b0 ="
b0 C"
b1000 :
b1000 k"
b1000 *#
b1111 ?
b1000 K
b1000 !#
b10011 v"
b100 Z
b100 *"
b11000 S
b11000 ;"
bx H
bx _"
bx ##
bx e"
bx G
bx $#
b100000000 "
b100000000 5
b100000000 8
b100000000 +#
b100000 @
b11100 $
b11100 3
b11100 B
b11100 q"
b11100 '#
b100001110000011110010011 {
b100001110000011110010011 u"
b11100 }
b11000 |
b100 u
b100 g"
b1100 y
b1100 i"
b100 n
b100 4"
b1 z
b11000 t
b11000 6"
b10100 s
b10100 5"
b10 _
b10 ^"
b10 "#
1c
0f
b0 e
b0 f"
b10100 d
b1110 #
b1110 4
b1110 6
b1110 (#
b1110 $"
b1110 m"
b10000 #"
b100000000 /
b100000000 ~
b111 +
1)
#90000
0)
#95000
b0 O
b0 o"
b1010 =
b1010 -#
b0 \
b0 B"
b0 O"
b100001000 %
b100001000 2
b100001000 Y
b100001000 2"
b100001000 -"
b1000 ."
b1000 ,"
b0 :"
b0 L
b0 8"
1D"
bx G
bx $#
b1000001 a"
b1000 Z
b1000 *"
b100000 S
b100000 ;"
b1111111 P
b1111111 >"
b1010 ;
b1010 j"
b1010 )#
b11110 :
b11110 k"
b11110 *#
b1010 ?
b11111111111111111111111111111110 K
b11111111111111111111111111111110 !#
bx H
bx _"
bx ##
bx e"
b10000001010000000001100011 J
b10000001010000000001100011 p"
b100100 A
b100100 &#
0!
07
0%"
b0 #
b0 4
b0 6
b0 (#
b0 $"
b0 m"
b10100 #"
b100 e
b100 f"
b1 g
b1 `"
b100000100 R
b100000100 ]
b100000100 ]"
b11000 d
b0 m
b0 3"
0r
1v
b1111 u
b1111 g"
b1000 y
b1000 i"
b1000 n
b1000 4"
b0 z
b100000000 x
b11100 t
b11100 6"
b11000 s
b11000 5"
b11111111111001010000010100010011 {
b11111111111001010000010100010011 u"
b100000 }
b11100 |
b100100 @
b100000 $
b100000 3
b100000 B
b100000 q"
b100000 '#
b1000 +
1)
#100000
0)
#105000
11"
b1010 /"
b1010 [
b1010 )"
b1 \
b1 B"
b1 O"
b10 A"
b10 ["
1U
0X
0>
0D"
b1000 %
b1000 2
b1000 Y
b1000 2"
b100000000000000000000000000001000 -"
b11111111111111111111111111111110 ."
b11110 ,"
b1010 9"
b1010 M
b1010 7"
b110001011000011010110011 J
b110001011000011010110011 p"
b101000 A
b101000 &#
b1100011 C
b1100011 ?"
b1100011 E"
b1100011 P"
b1 P
b1 >"
b0 :
b0 k"
b0 *#
b0 ?
b100000 K
b100000 !#
b1100011 v"
b11111111111111111111111111111110 Z
b11111111111111111111111111111110 *"
b11010 S
b11010 ;"
b0xxxxxxxx H
b0xxxxxxxx _"
b0xxxxxxxx ##
b0xxxxxxxx e"
b1000010 a"
b100000100 "
b100000100 5
b100000100 8
b100000100 +#
b101000 @
b100100 $
b100100 3
b100100 B
b100100 q"
b100100 '#
b10000001010000000001100011 {
b10000001010000000001100011 u"
b100100 }
b100000 |
b1010 u
b1010 g"
b11110 y
b11110 i"
b1010 w
b1010 h"
b11111111111111111111111111111110 n
b11111111111111111111111111111110 4"
b1010 x
b100000 t
b100000 6"
b11100 s
b11100 5"
b0 _
b0 ^"
b0 "#
0c
1f
b1111 e
b1111 f"
b0 g
b0 `"
b100001000 R
b100001000 ]
b100001000 ]"
b11100 d
b100 #
b100 4
b100 6
b100 (#
b100 $"
b100 m"
b11000 #"
b100000100 /
b100000100 ~
b1001 +
1)
#110000
0)
#115000
b1000 /"
b1000 [
b1000 )"
b1000 9"
b1000 M
b1000 7"
11"
b1000 %
b1000 2
b1000 Y
b1000 2"
b0 =
b0 -#
b1 O
b1 o"
b0xxxxxxxx H
b0xxxxxxxx _"
b0xxxxxxxx ##
b0xxxxxxxx e"
1("
b100000000000000000000000000001000 -"
b11111111111111111111111111111111 ."
b0 ,"
b0 \
b0 B"
b0 O"
1>
b101 A"
b101 ["
0U
b1 <
b1 ,#
b100001000 "
b100001000 5
b100001000 8
b100001000 +#
b10 a"
b0 Z
b0 *"
b1000000 S
b1000000 ;"
b110011 C
b110011 ?"
b110011 E"
b110011 P"
b0 P
b0 >"
b1011 ;
b1011 j"
b1011 )#
b1100 :
b1100 k"
b1100 *#
b1101 ?
b0 K
b0 !#
b110011 v"
b110101111010000000100011 J
b110101111010000000100011 p"
b101100 A
b101100 &#
1!
17
1%"
b1111 #
b1111 4
b1111 6
b1111 (#
b1111 $"
b1111 m"
b11100 #"
b100001000 /
b100001000 ~
b1010 e
b1010 f"
b1000 R
b1000 ]
b1000 ]"
b100000 d
1l
0v
0j
b1 i
b1 &"
b0 u
b0 g"
b0 y
b0 i"
b100000 n
b100000 4"
b100100 t
b100100 6"
b100000 s
b100000 5"
b110001011000011010110011 {
b110001011000011010110011 u"
b101000 }
b100100 |
b101100 @
b101000 $
b101000 3
b101000 B
b101000 q"
b101000 '#
b1010 +
1)
#120000
0)
#125000
01"
b1 %
b1 2
b1 Y
b1 2"
b1 ,"
b0 /"
b0 [
b0 )"
b100001000 =
b100001000 -#
b0 <
b0 ,#
b1 ."
b1 -"
b1 Z
b1 *"
b0 9"
b0 M
b0 7"
1D
1X
b1 A"
b1 ["
0>
b0 \
b0 B"
b0 O"
0("
b1 :"
b1 L
b1 8"
b0 O
b0 o"
b10001111000011110010011 J
b10001111000011110010011 p"
b110000 A
b110000 &#
b100011 C
b100011 ?"
b100011 E"
b100011 P"
b10 Q
b10 ="
b10 C"
b1111 ;
b1111 j"
b1111 )#
b1101 :
b1101 k"
b1101 *#
b0 ?
b100011 v"
b100100 S
b100100 ;"
b1000 "
b1000 5
b1000 8
b1000 +#
b110000 @
b101100 $
b101100 3
b101100 B
b101100 q"
b101100 '#
b110101111010000000100011 {
b110101111010000000100011 u"
b101100 }
b101000 |
0l
1v
b0 i
b0 &"
b1101 u
b1101 g"
b1100 y
b1100 i"
b1011 w
b1011 h"
b0 n
b0 4"
b1 z
b0 x
b101000 t
b101000 6"
b100100 s
b100100 5"
1^
0f
b0 e
b0 f"
b100100 d
b1010 #
b1010 4
b1010 6
b1010 (#
b1010 $"
b1010 m"
b100000 #"
b1000 /
b1000 ~
b1011 +
1)
#130000
0)
#135000
b1 N
b1 n"
b100001000 /"
b100001000 [
b100001000 )"
b0xxxxxxxx H
b0xxxxxxxx _"
b0xxxxxxxx ##
b0xxxxxxxx e"
0W
b100001000 %
b100001000 2
b100001000 Y
b100001000 2"
b100001000 -"
b0 ."
b0 ,"
b1 :"
b1 L
b1 8"
b100001000 9"
b100001000 M
b100001000 7"
1>
b0 A"
b0 ["
0D
1X
b0 \
b0 B"
b0 O"
b0 a"
b1 b"
b0 Z
b0 *"
b101000 S
b101000 ;"
b10011 C
b10011 ?"
b10011 E"
b10011 P"
b0 Q
b0 ="
b0 C"
b100 :
b100 k"
b100 *#
b1111 ?
b100 K
b100 !#
b10011 v"
b11111111111101010000010100010011 J
b11111111111101010000010100010011 p"
b110100 A
b110100 &#
0!
07
0%"
b0 #
b0 4
b0 6
b0 (#
b0 $"
b0 m"
b100100 #"
0^
1f
b1101 e
b1101 f"
b1 g
b1 `"
b1 R
b1 ]
b1 ]"
b101000 d
b10 m
b10 3"
1r
0v
1j
b0 u
b0 g"
b1101 y
b1101 i"
b1111 w
b1111 h"
b0 z
b100001000 x
b101100 t
b101100 6"
b101000 s
b101000 5"
b10001111000011110010011 {
b10001111000011110010011 u"
b110000 }
b101100 |
b110100 @
b110000 $
b110000 3
b110000 B
b110000 q"
b110000 '#
b1100 +
1)
#140000
0)
#145000
b0 \
b0 B"
b0 O"
b1000 =
b1000 -#
1D"
b100001100 %
b100001100 2
b100001100 Y
b100001100 2"
b100001100 -"
b100 ."
b100 ,"
b0 N
b0 n"
b1100000010110110011 J
b1100000010110110011 p"
b111000 A
b111000 &#
b1111111 P
b1111111 >"
b1010 ;
b1010 j"
b1010 )#
b11111 :
b11111 k"
b11111 *#
b1010 ?
b11111111111111111111111111111111 K
b11111111111111111111111111111111 !#
0<"
b100 Z
b100 *"
b110000 S
b110000 ;"
bx H
bx _"
bx ##
bx e"
bx G
bx $#
b0 :"
b0 L
b0 8"
b1000010 a"
b0 b"
b1 "
b1 5
b1 8
b1 +#
b111000 @
b110100 $
b110100 3
b110100 B
b110100 q"
b110100 '#
b11111111111101010000010100010011 {
b11111111111101010000010100010011 u"
b110100 }
b110000 |
b0 m
b0 3"
0r
1v
b1111 u
b1111 g"
b100 y
b100 i"
b100 n
b100 4"
b110000 t
b110000 6"
b101100 s
b101100 5"
b10 _
b10 ^"
b10 "#
1c
0f
b0 e
b0 f"
b100001000 R
b100001000 ]
b100001000 ]"
b101100 d
1!
17
1%"
b1101 #
b1101 4
b1101 6
b1101 (#
b1101 $"
b1101 m"
b101000 #"
b1 /
b1 ~
b1101 +
1)
#150000
0)
